nombre,topic
Architecture models,Architecture
Molecular biology,Biology
Macroeconomy ,Economy
Pre calculus,Mathematics
Vectorial Calculus,Mathematics
Game theory,Mathematics
Probability,Mathematics
Integral Calculus,Mathematics
Astronomy,Physics
Enterprise architecture,Technology
