Date,loginTime
2022-10-20,5.465692848596229
2022-10-03,14.824555658279133
2022-10-04,30.14926245131412
2022-09-14,18.711903097628195
2022-10-27,22.90312440671975
2022-10-06,12.533707196027558
2022-09-20,21.20048280233686
2022-10-23,24.92966912704651
2022-09-14,12.81436161863099
2022-10-27,15.30112615582422
2022-09-17,22.03138382022696
2022-10-11,12.605877109905244
2022-11-05,31.740168328116276
2022-09-20,29.382978342324524
2022-11-09,20.71596197721157
2022-10-17,21.950587731701557
2022-09-25,13.73108517021113
2022-11-06,26.09230397538389
2022-11-14,13.079155232262252
2022-10-04,11.32062033898024
2022-11-02,15.868627229118369
2022-11-10,22.3446776995341
2022-10-10,30.120120200384896
2022-10-10,5.732396523425386
2022-10-19,22.65331237124905
2022-09-24,10.8909041152231
2022-09-28,23.055403872124625
2022-09-23,22.760725050912672
2022-09-28,22.793989194550413
2022-10-27,21.144444110452227
2022-10-05,22.908519491427796
2022-10-04,6.285871939227751
2022-10-02,17.05482938287954
2022-10-26,21.091687820156416
2022-11-01,19.35457292208213
2022-10-21,7.786715373819478
2022-11-14,9.276393923457825
2022-10-08,25.946411501174737
2022-10-17,22.86680869993712
2022-11-01,21.517628688238844
2022-10-22,12.661499696520355
2022-11-13,6.127528259031748
2022-10-26,13.814050771740852
2022-10-13,8.702342183660143
2022-11-14,27.656906945708585
2022-09-20,7.749666256228861
2022-09-25,19.73741491669514
2022-11-16,17.606481424969772
2022-10-16,8.7221367917412
2022-09-20,30.88616834279841
2022-10-03,7.484771245592205
2022-10-28,15.227734571176857
2022-09-27,17.749356846943968
2022-10-29,11.494106807620508
2022-11-10,8.988301151651187
2022-10-05,11.765404668407063
2022-10-28,26.495813381473678
2022-10-19,9.74023601413928
2022-09-20,12.792705632769932
2022-10-14,10.267162558285388
2022-09-16,18.52983807428069
2022-10-04,25.670890931097247
2022-10-20,14.457872274696191
2022-09-29,11.503181650707733
2022-10-30,25.867863100839315
2022-10-18,29.17317019586192
2022-11-08,11.101044439283466
2022-10-04,5.137140544533239
2022-09-15,30.976447528473468
2022-10-20,22.797988653969718
2022-10-17,13.484541089385836
2022-11-06,24.88472204130921
2022-10-31,20.10083311610356
2022-11-02,8.334171194478277
2022-10-25,20.275298214915026
2022-10-07,16.853463311681228
2022-10-08,9.030267497635457
2022-09-22,7.421515501355018
2022-11-01,29.474776933917337
2022-11-02,28.14251997888957
2022-10-03,23.70968067690155
2022-09-26,5.501316802073709
2022-10-20,28.786669993474884
2022-10-02,13.335601523172263
2022-09-11,26.96985974254187
2022-09-17,6.964746018855015
2022-09-15,20.22972402633537
2022-09-14,31.193666387080707
2022-09-13,6.186129949270869
2022-11-05,15.335442649888606
2022-10-12,18.46060582880495
2022-09-13,22.36267585350706
2022-11-04,10.589217859541542
2022-09-28,29.80828799347581
2022-11-01,5.8658088201433625
2022-10-12,28.55267991392475
2022-11-05,10.94874881867565
2022-10-15,6.218031771953654
2022-10-09,25.350509104078068
2022-10-20,23.024978723613945
2022-10-19,11.881000907858294
2022-09-13,18.83252239986659
2022-09-26,26.979287735548173
