id,Date,sessionTime,loginTime
3b04e350-5cac-4a1c-b13a-6717972fe603,2022-11-05,13.497706845189152,
901f801f-f484-4f5d-a31b-c273b6c87113,2022-11-07,96.45826431856601,
25f69f91-5310-484b-a2bb-85d781a2b4f2,2022-11-02,45.67817725233416,
EA5F6BF2-7269-441B-A71D-9265BA4AF6DD,2022-11-17Z,58.74596297740936,
d5bdf971-d363-4d6e-8d8d-d907200777ae,2022-11-03,125.03766548906961,
2d546c18-5653-401d-ace3-4b52682d60b6,2022-10-28,73.46402246969575,
41b33a59-dfbe-473c-a8d4-e750e4e7fa48,2022-10-27,11.659332760131099,
bbec2c4c-3189-42d8-9689-609c18375566,2022-11-07,12.397170698164807,
1fc82813-6a13-4e11-8085-c7c5e42e045b,2022-10-31,176.61221417498183,
9e25bdef-409b-44d1-8e0b-e68098d82c71,2022-11-08,152.36055782547774,
79d762fd-3c95-40b7-bb29-4b4e496349c4,2022-11-05,135.7100907758839,
4e4086e0-b45d-453b-baec-a30eff035423,2022-11-06,23.73876682791153,
57914e1c-c379-43ea-ad32-a4c135f7bb08,2022-11-05,144.2144176941857,
9b82b592-b955-4b22-b15c-eee5cc97118f,2022-10-31,38.939917046859684,
23705d39-ef14-4873-a427-9840b2e9a5ec,2022-11-04,11.143989678151662,
98886677-411e-4e41-99c2-6fec857e7a43,2022-11-09,9.976490140242781,
efc25ba3-8117-4d30-b6c5-b3630aa7389d,2022-10-29,87.02476308557625,
3815407a-9cf3-4470-ad33-6bad7080bdf5,2022-11-04,139.49696723878606,
BFE5A5CB-5A9D-4319-8DF9-628460A44868,2022-11-11Z,134.79569292068481,
deb747e3-67c2-4fe0-9c53-fb6d3e6ef8a0,2022-11-07,135.33356382844124,
b2060e61-5829-4147-a681-b5b9063646a4,2022-11-07,129.8318320197968,
7a003993-4049-4c6e-9303-0b09d42a95ce,2022-11-07,146.64357158948914,
8cd5ee92-d604-491e-9bfe-b15ee870835d,2022-11-01,101.0295344491403,
79930eda-14bb-4c1c-b139-f19418347413,2022-10-25,187.33224118115209,
11650663-b9fb-4efe-aa1c-e616714ea74f,2022-11-07,138.74533544423264,
44a60f0a-4469-4d58-9dcb-6ee875bae840,2022-11-08,174.95015904646095,
fbd92e66-bb09-4883-9df5-39c62d26ae90,2022-11-08,15.370392751833629,
2814e050-1f16-4573-8c05-e981c39601d4,2022-11-08,70.15603922963945,
4370c512-7e24-4f91-b2f8-e5b47bc444c3,2022-11-09,15.249503581071167,
81b8ba9e-a134-4f64-a874-6d0caf038351,2022-11-06,170.2988238964986,
beeb0772-8878-4d42-9719-a1a53e53996b,2022-11-08,18.488392785536295,
4bc3d9fb-1960-480d-95ed-1822862b3138,2022-11-04,110.70944321538002,
aedcf9b0-67a1-467a-befc-f50b332bb020,2022-10-26,70.96839936325966,
e090cd74-9982-4bbc-a99a-beb7777b7052,2022-11-08,12.984693396291501,
bf70a3d4-3974-4d31-949d-ff9ff4122320,2022-10-27,19.063546728461358,
a4208043-fa24-4139-aef9-6780fee3b956,2022-10-27,102.45225008547612,
c95e8995-f026-4e76-a5d8-bc585aa5d973,2022-11-08,10.058217741739027,
59fb44bb-94b9-46b9-bb75-33cc067cb3f9,2022-11-03,10.20543070416048,
31fd21f2-be00-4c6a-9a8a-50d16393b468,2022-11-06,182.35383675546728,
5cb82209-2469-459a-8e64-6ef6277e8e24,2022-10-27,85.66608291190173,
ba618ce2-6395-48e7-9f71-b309fcf5cd49,2022-10-25,182.65546767194422,
af270701-b434-44d5-b83b-6c0a714ce174,2022-10-20,,5.465692848596229
ad634b27-72a7-4aa9-84e7-b4c6b7bd3e1f,2022-10-29,163.88497512467228,
8977be6e-0d1e-455d-be51-a37d4bcfe5ef,2022-11-04,13.083357669140819,
875f5df8-cfd0-442a-8f3e-e1b3b0e18939,2022-11-03,16.84592909580352,
7ea33078-e6e7-4606-9d55-2e3443b2ed13,2022-10-24,129.8744044950473,
fa2bc05e-aca0-48ac-b545-e8fb532bfcb8,2022-10-31,129.8173651023354,
1a83faef-c53f-47cd-a045-24d8debd248a,2022-11-05,45.89307731547645,
cc8479ad-8019-4b6e-b5e2-d72e83d831f2,2022-10-26,147.9254368951435,
ad906fe5-fe3b-4b5a-bf0c-78cf6259eb00,2022-10-29,5.809071732201388,
b6f47dcb-54fc-4981-85cc-828accff4c3b,2022-10-28,187.5731491293993,
4f9df171-f590-4594-a8fc-e8c8de765012,2022-11-06,147.02170103441634,
14e09534-2e13-4cd1-9e01-c3f3617aaff9,2022-11-05,96.83340682652548,
52e9e0ad-dfd8-47d7-9662-45c66a5a91e4,2022-11-01,94.58325570481,
f74e1c4b-2dac-4a37-8c0a-74ca9c4aeca7,2022-10-27,53.91386762847317,
f26eaacc-54a0-4b6d-8ecf-1b81fcde1611,2022-11-08,68.51221139817658,
fb9c18e6-a768-4d7c-822b-0170bbec3b76,2022-11-08,20.644657457118825,
1ddb4318-5bea-46fb-86be-e9919086daaa,2022-10-28,185.16571282092065,
d58849db-bd18-4e68-94b8-a6c43c195955,2022-10-28,13.237967846566157,
ed76a318-c5f6-41e3-8739-5bb5766d241f,2022-11-08,82.47107316277031,
312111a2-b947-49c2-b0c4-0d9abd5c17d1,2022-10-31,11.309596439085036,
a4fb0fe9-884d-4e98-b929-e0f9b3594bf7,2022-10-28,14.234692509660169,
32349b17-1546-421b-a471-1f21ea5da554,2022-11-06,47.90807345272303,
36bc6f01-5b2c-4af0-afc0-47240a9bc23c,2022-10-29,85.75044525411285,
6BB77522-B247-478E-AF43-9ABA135AF0BB,2022-11-11Z,195.2417780160904,
81c4c6f7-406a-4f6d-9b70-e8784895c193,2022-10-29,4.357340822972878,
73E7103D-3AF7-4F7B-9F70-C1A5D81B6CE6,2022-11-11Z,1.0594849586486816,
8c59216f-695c-4f36-84d3-7db81c34cb6e,2022-11-05,125.01471727135588,
69E67C2A-1018-4ED3-AD1D-F80B82D99E9B,2022-11-17Z,18.96390700340271,
8b0a61c7-6e92-43cf-9f8c-11d8add9de6a,2022-11-06,132.82333719280203,
57618133-e056-4e17-8d73-479b638d77b6,2022-10-27,34.84911626522707,
020c267c-f80e-4fbe-857f-d5a771e0bf92,2022-10-28,13.396577791203757,
161ad767-6941-4a1c-9f29-387049ac3a14,2022-10-28,6.458638144973838,
4b9e7022-b44c-4a26-a054-2acb0527e52f,2022-10-25,42.769660046792225,
61b2a44b-614a-42fa-9f20-8e9f79bd8431,2022-11-03,2.3533430115176968,
e231788a-1260-4303-acd3-9d690c38956f,2022-11-06,176.74591909318372,
1CD8D722-2F79-4171-BD3D-6402573BB623,2022-11-17Z,21.683147072792053,
0be423aa-0bfa-48ad-8c17-db9470dbbefe,2022-11-01,8.20479321504184,
b6a03c85-0ef5-400e-bace-1b181e73719f,2022-10-27,69.78074221067031,
665dbf1e-aa48-41fa-8cca-e3e35729fa95,2022-11-03,124.44879287229897,
3f9b199c-6450-486c-b576-7aa57f2c8a04,2022-10-29,164.41035679862756,
cfe62d1c-46ad-4ae1-9fff-6ce2757baa34,2022-10-26,5.335701758534351,
b16c600a-932c-4beb-bb2e-cb876004476a,2022-10-27,146.46334374723315,
3BC031E1-7073-4A2D-AD50-D4C8D4984F79,2022-11-17Z,261.72071290016174,
c3d85556-5d57-47c4-b642-fac210cceab6,2022-11-08,28.550264110037023,
1db3d533-12bc-4983-af2a-a15090c468bf,2022-10-30,128.43957673618732,
64ec2b1e-444b-468d-9313-9f03a806b70c,2022-11-05,18.676474992100506,
6a7f78f0-14d6-423b-8c98-4b557aeb6b05,2022-10-27,42.893853965966734,
38f428b8-b01c-4c21-8690-1b218cac6eba,2022-10-24,129.5257219184928,
b54428b0-3e9e-43a3-bcae-cccf06605277,2022-11-01,14.049770908166202,
33779114-474e-473f-9d78-e2c9b0f735fb,2022-11-03,31.5019154817627,
4a18c400-1a1e-4cde-91ef-96cdf1de9212,2022-11-05,160.93332296284018,
df927a24-716f-4924-8bea-2f3248df54e5,2022-11-05,30.978163740663994,
7b45dfac-18ca-4490-897b-c0e56f8b5daa,2022-10-25,62.85712494159931,
ce1bbe22-fb45-4fee-a581-3197411509e3,2022-10-30,5.437564805081009,
5203d2db-36d9-428d-8eb7-22fc6efc15a0,2022-10-26,126.94083357801533,
dcec8398-bdbb-4c8e-b788-a58e6f4c10b7,2022-10-27,133.98709089872074,
60c86886-7b25-4e2e-9e23-ad1bf486c0a0,2022-11-09,189.23397781478627,
ed842bae-1537-4bc5-b4f8-5feabe7c186e,2022-11-06,198.8167909631348,
26b0f981-073c-4ddd-ac11-1e5542a89133,2022-10-29,78.53672442703188,
0b85d3c8-007d-4f9b-b80c-07c00513f7f9,2022-10-24,120.2059963001205,
d27236cc-7683-4107-9256-4e895619d00c,2022-11-01,10.662549809062778,
adad3b09-8e2a-4242-af68-b2ff2887bb1d,2022-11-07,76.72975650954417,
cd24db90-aaac-4df5-985c-d14fb518b7af,2022-11-08,117.87117025102823,
62456584-f712-4dcc-91c1-6c4a8dd97935,2022-10-03,,14.824555658279131
c74f8be2-0380-4d96-8ff2-3f3a18eec6df,2022-10-24,4.4366109571274945,
607ce3aa-5f31-49e2-b97c-7cf3045ae095,2022-11-02,46.536872223215994,
efee39f9-22f7-49cb-90cd-a788d782bb6f,2022-10-27,87.23672877155822,
8d1b2ab5-3fe5-4b0a-8112-6b62d469b0f8,2022-11-07,191.87189312407062,
000daa74-2e18-4e0b-858b-9839981ef778,2022-11-04,10.462830174236306,
A00BAE3A-E7AD-4CCF-9F1E-49870A05141B,2022-11-17Z,36.73920500278473,
ad9f721e-2c76-4410-a625-6652ee7e2329,2022-11-04,125.1554025937079,
6D784744-AB0C-470B-AC4C-34BF8EDA99A6,2022-11-17Z,594.8772029876709,
E8A69B9A-2305-46C4-96AD-03A51B3E0AF9,2022-11-12Z,15.349264025688171,
6283c45b-39bf-4a0d-851e-69bb9fb570e4,2022-10-31,74.55956427424519,
f10fa626-aec7-43e9-9253-cfea9120224c,2022-10-27,132.79255400676664,
efde1b76-bba0-4ad2-a3a6-e3284e8da90a,2022-11-07,105.0612655852237,
A7665E60-7D9B-42F7-A217-E09D7C26A484,2022-11-12Z,10.546771049499512,
B946C946-CF61-4CC4-9DE5-BAF05B0AEAEF,2022-11-18Z,9.278828978538513,
ead6a860-0bc7-4ad0-b768-ae546386ea8d,2022-10-29,134.34358374453228,
a599106a-9cec-408c-91e3-3b70ce30f3ef,2022-10-28,183.50407131476473,
49363132-b2cb-42f6-a48b-7fc11ef33bb4,2022-11-05,11.596712988309152,
9e68c8c8-388b-4960-aded-4309376ba107,2022-10-25,166.72726207427183,
c4dd66ec-39c0-4d32-b9b3-442eb1d7925f,2022-11-05,6.892892502648936,
27671DA4-6B7D-4EB2-91A5-7F450D7A49A5,2022-11-12Z,27.067312002182007,
22c51bd4-85b3-490c-ac9e-b20eb2a8fd2d,2022-10-30,140.46569316726257,
6da3b543-6510-417f-a614-b45c22de14ca,2022-11-09,17.986715082841428,
602d979c-8b62-4b74-a4bb-4ede0f273d34,2022-11-06,75.50220211320122,
8365AFDD-66B6-4042-BCDD-1FE564DF1F60,2022-11-11Z,48.762121081352234,
96daa4cd-4cf4-4f69-a344-51477e0009db,2022-10-26,72.24538010397542,
94622AA2-368D-4DC2-8EDE-6343F986F5A3,2022-11-17Z,233.28427600860596,
183548dd-c8b5-4dd7-81c4-447dba203682,2022-11-07,118.64060180203866,
8886f912-9da8-4f44-8325-765f5377e26c,2022-10-24,152.6108931299192,
bf71addc-1f0f-47d2-b879-52916686c7ca,2022-11-03,149.38484475391687,
b61b7a4a-f888-4a3f-aba0-8bc9eba8b043,2022-11-02,7.321874043486464,
86922E45-E6CE-4556-A297-0FC7C650D564,2022-11-12Z,53.72946894168854,
2e8c871e-92dc-4eb3-8055-0db3ef0eac60,2022-11-05,131.6179606526267,
d5cffd15-38bb-4abd-9862-31bc3a2d263d,2022-11-05,54.74581895579106,
27B71C34-4FF9-4690-9EC1-3C42C48F25BC,2022-11-17Z,33.352550983428955,
288241a4-6427-4f5d-8965-51f81db6fd98,2022-11-02,121.66665407122471,
f0d3f6b9-ffa5-497c-87e8-1340f085625d,2022-11-08,64.85392416972942,
12c7f319-826a-47e8-945c-e7ff3c0d0a61,2022-10-24,114.56779294116375,
3f7d25aa-99d6-41f2-a9a8-186c65188929,2022-11-08,148.58315714321867,
fd517843-55b0-4f8d-bc35-18cdffa9b0a7,2022-10-27,57.624009053465514,
0B36C704-4B79-4477-95C3-A06B95DC82BA,2022-11-11Z,11.527193903923035,
35d4d64a-8aa8-4097-9eca-5dd998a6783f,2022-10-30,19.81313513588319,
5b2d0072-8294-434a-a919-26281e60a0fb,2022-11-06,31.148319828992793,
63005951-ceb2-4a8f-b3ce-a0581d6e61f5,2022-11-08,38.827636710003645,
a572a315-a168-4e1f-88cf-f5c1f298919b,2022-11-03,35.92289311393888,
06f366f4-5dbd-4858-aa0f-f5c7df02eaea,2022-11-05,16.679412375091196,
2c696965-8740-435d-a241-3d520f66f1bf,2022-10-28,16.03347398456123,
9895BC6E-7B6A-487E-BDF8-D1A8BFB833E6,2022-11-17Z,5.103744983673096,
8ec40d10-d72b-42d8-815b-ce785f67befd,2022-10-29,15.503871474180881,
b41dbb30-e9dd-45fc-98cc-cfd9849b57d8,2022-11-08,19.317177277651993,
8d95ba47-9f64-4cf0-9b2c-7c5c302fbc84,2022-10-26,16.406749415532893,
32baa617-0599-4aa7-bde1-f65425f8a7cb,2022-11-09,25.262765798304127,
9f88a30a-517a-443b-b7c5-8b5665d98f43,2022-11-08,6.910430392227387,
9943b662-e633-4db9-ad92-45ce162c096a,2022-10-30,18.056017764853497,
af1848f4-2a01-4a25-b1ba-3519076cde91,2022-10-24,103.54300934159457,
ed1bbca7-ff3e-4a2f-a2ad-8ab0138e21bd,2022-11-09,63.35807793215454,
a79b2a05-fd50-4796-a14a-8abef1569a43,2022-10-25,199.12696486028113,
30c7187d-46c6-4dde-be31-3465258192af,2022-10-30,96.25203563788345,
0ce2bd79-f063-47e6-8417-31ecdb35b721,2022-10-04,,30.149262451314122
f40db6cc-4545-4926-8033-caaf768c99f6,2022-11-07,175.52866986869688,
B1EB64B4-073C-44FD-B271-B77F8D8F48E1,2022-11-12Z,152.97622692584991,
c1758c5e-b356-498b-94a5-75854e7be6e0,2022-10-30,155.66535064545997,
009e530c-ffc1-42c9-b183-7ce1a18afc23,2022-10-27,114.66633878965698,
60534DF0-9411-4941-A674-AB7E21438159,2022-11-12Z,233.59059596061707,
fcfad039-f272-4634-8208-e4fb5cc0aaa7,2022-10-30,153.38200672850542,
0b92f1da-d81a-478d-8cb8-93cb41a4c101,2022-10-24,2.074317168835237,
04c7346c-e89f-40c0-8fb7-0d6263052513,2022-11-04,18.844711876636747,
f682b820-a2d8-445c-afe9-79f68012bc5c,2022-11-08,10.884231418704404,
9b4aab48-3fc8-42ff-a05a-1970e2326692,2022-11-07,4.955547410132304,
c00f298d-0714-4514-99a2-fbf01c5619dc,2022-11-06,139.62767236499894,
db5c4f77-81e9-4d8d-867f-f0037563edd8,2022-10-29,143.7000086354819,
9A06E06D-4457-4F92-8823-7A3CE73F66AE,2022-11-17Z,82.78600299358368,
4af72674-4812-466d-abfc-2664534da74d,2022-10-26,123.58165272377533,
627041fd-56c4-4f15-b7f2-cf0bce40a6c1,2022-10-26,46.09336994264645,
8093B9AF-3CFC-4797-AA89-44FE76EFE6D3,2022-11-18Z,1747.937206029892,
99d2f1d4-5e64-43a5-96db-ad1b4a982ec5,2022-10-27,44.12136999806338,
2cbdd594-55f2-4b92-8182-9fce9f493c64,2022-10-28,168.5580725243313,
d1103950-fc88-4876-8498-ef313a944658,2022-11-06,2.3291082651390287,
51da2285-1bf6-4ca3-848b-a1bf7f277e6d,2022-11-04,76.77321381398147,
fbb08fcb-2524-48d2-9976-321ddaa077d6,2022-10-28,131.60374578940886,
6ba6aef8-dc79-4a5d-8820-24885aa05dae,2022-11-04,11.177442554578043,
c96fe863-8a7b-44c7-84ef-a1f33c85eef0,2022-11-07,119.59980419589158,
362c1c42-538f-42e0-be43-5fbdca30c4c3,2022-10-27,66.43795914470523,
c7cac4c8-5b27-4e72-a175-4394b521d824,2022-11-01,18.85130386481563,
8c011e92-5ecd-4baf-8700-136166a41642,2022-11-06,37.18377954292161,
7cda5ab2-d2b3-43c4-a8dc-c4d803598686,2022-10-26,126.79357650186627,
b3ee3f9b-06e1-46d0-8c0f-4282972ed8e1,2022-10-26,80.42747056032965,
8bf4ba8d-656c-4b74-9ce6-779dbb3ba6de,2022-11-01,6.765913708571006,
890285c3-2d02-472c-981e-b71f76ac29e9,2022-11-09,135.01238434735464,
9a2e6eb3-a267-486a-831a-190640c2b1bb,2022-10-24,103.59320619341945,
5DCEC6D7-AF60-477E-88B8-F1788805B633,2022-11-12Z,42.388360023498535,
77cbff80-15bc-4e29-8eec-384f69ac1e41,2022-11-05,14.847728556285892,
71d46ae0-2f8e-4288-a793-24baad33ef66,2022-11-03,107.14652456205516,
75b76de9-bcb7-46e3-965f-f1984b65883d,2022-11-09,91.12102622868649,
bb9d5b46-558e-4948-ad51-f784561723fb,2022-11-02,137.83268220748135,
fa3a7b01-812f-47ab-94b4-4f679a2b3374,2022-10-25,17.84760451094466,
7cfe5082-f10f-4f17-9738-78b3da6e3412,2022-10-26,162.33754423865116,
2d1639c7-f0a6-40a5-adc4-b383f135fc63,2022-11-03,89.24918330358875,
db8e465d-9134-418d-ac37-66ab871a79ba,2022-10-27,123.5992432030111,
8c6636af-d183-444b-99f0-351382944de0,2022-11-06,7.850513361643304,
9ae74337-a344-45aa-b728-b70d87aa5f6e,2022-10-24,4.534221408249714,
bdf15b46-b4ca-48fb-bf11-12cbb55a2f68,2022-11-08,97.29375182991978,
61a40841-296c-4fd0-bedc-a8ba41c8d4ca,2022-11-04,145.74259207404992,
aca3fe92-97b1-472c-ba3d-f055b43779cd,2022-11-02,14.845167842552513,
752b1cfe-46e4-4a6c-91be-3b82f3d6aebe,2022-10-24,7.712351095082704,
4ed2175d-ca4c-4f0a-b505-564ce1bcebcc,2022-10-26,19.691408364497374,
94ecf64e-86dd-4416-abbe-52f1a14ad3f6,2022-10-27,189.93810271011202,
1d9b931a-12d6-4153-888a-0248ba250504,2022-10-24,18.178002867552628,
23ab7e1e-8b8e-4aa7-8ff2-a9885a0721ed,2022-11-07,124.1141124311843,
23d5d475-985d-4d17-96bf-ac6db0009fbf,2022-11-05,158.50527165766272,
c8f2f4f6-048d-4243-9686-4edf70b1cdf1,2022-10-27,186.3774932554104,
8a1f121e-e08d-4488-9336-1a832d96fdd1,2022-11-08,15.619080579625344,
82c1df99-1b79-464a-b17d-0f149d90d206,2022-10-30,15.238494396625947,
79526d7b-151d-4f7e-8732-b0025a04fe93,2022-10-25,69.12357794648604,
f9abbaec-2f6b-4d95-a63f-2698041cf4db,2022-11-09,120.84204262169534,
34972e13-de40-4245-8157-37601344242b,2022-10-27,18.39862291091504,
6d5aa68b-2b5a-40e7-a8dc-03f6bdfeace8,2022-10-25,7.745878074570646,
1d2e8a90-6a13-4e32-be48-22685ed03cbe,2022-10-26,129.94212949514025,
66b15352-8467-4136-912b-0c1449607dcc,2022-10-26,44.29668654038625,
efc9c639-262b-4313-8558-4d687d0fdfc2,2022-10-26,114.28177772795782,
fa3784e6-f411-4765-bf7a-9ff8f4f1ce73,2022-11-02,168.54694075997344,
0ACD7B74-71FA-408E-9AE2-26D971EA4E3A,2022-11-17Z,88.68098497390747,
7d894c22-b858-4fb3-99e5-7ffc436d0f53,2022-11-09,19.039921481477496,
14d50364-c9d0-4b33-9106-68b3cd250409,2022-10-30,42.445024546248085,
F621BCFA-C79E-4894-A29D-34EFB46757EF,2022-11-12Z,681.0910310745239,
659ae9b4-7d0a-4c0d-a0da-a29ba5dbc4cd,2022-09-14,23.45031156010702,18.711903097628195
9acd3a8e-a84d-4be2-b637-57d4db31c36f,2022-10-27,21.630849005309052,22.90312440671975
7ed210be-1f73-4941-a612-abdc8980a95e,2022-10-06,27.550719311251463,12.533707196027558
77f49276-3d85-4de6-af41-020963be8283,2022-09-20,23.15578151635539,21.20048280233686
bdce5f20-71ab-4b6d-a68d-0237c239296b,2022-10-23,16.852982637168406,24.92966912704651
9db4096c-479c-4324-9970-048f53c77253,2022-09-14,25.034532166488013,12.81436161863099
775ac7ae-6702-4572-b411-ddb4782cb384,2022-10-27,25.014547066080656,15.30112615582422
93accb5c-a732-41a8-80e4-7eda83a74bf9,2022-09-17,18.012726951263392,22.031383820226957
71093b04-6dd4-4fdb-a530-39450e2898e3,2022-10-11,15.92583258872633,12.605877109905245
4e55c36d-50d2-4081-9062-6f56a132cfe7,2022-11-05,21.49954247104113,31.740168328116273
fec77044-54ec-45e1-bd13-56d457ca4b5c,2022-09-20,17.586911608477713,29.382978342324524
bfeba149-ddfe-471c-923c-b73e64d1f782,2022-11-09,29.811906266877568,20.71596197721157
f54ecd88-8413-418d-a284-93e787ab2e38,2022-10-17,23.559103499675444,21.950587731701553
2fbb344f-2447-4653-bf0d-91fa261c4ba7,2022-09-25,26.896199008844988,13.73108517021113
c487da25-dad0-48ff-9db7-46c4f07daeb1,2022-11-06,27.131940471536225,26.092303975383892
91ec163d-09eb-4ba9-bafe-f191f9c4bfe3,2022-11-14,19.553140676373125,13.079155232262252
0ae6e27c-f8da-4f4e-8f3d-497f6aa60487,2022-10-04,22.942231066134063,11.32062033898024
6ea83d3e-796f-47c4-a820-9176d0bc446d,2022-11-02,21.265772009032585,15.868627229118369
8c73892b-184d-4ccc-b01e-d7fcad4569fc,2022-11-10,23.545987925443782,22.3446776995341
5536ce2d-4b26-4488-8a18-e8061cf1b9b4,2022-10-10,29.831586059738587,30.120120200384896
c40c68b9-43af-4180-a1bc-268422eb7a91,2022-10-10,25.282701836633336,5.732396523425386
c1ddd7f9-af32-41ad-b39e-aa61f83dd1b9,2022-10-19,16.69727957501163,22.65331237124905
7c995eaf-c87b-4284-a2c2-16c35ed8fd5b,2022-09-24,16.117215448910642,10.8909041152231
8026cf82-63fc-4616-9e0c-ef03d9203bd8,2022-09-28,16.42180789758403,23.055403872124625
3e1f3aea-0977-47e3-8ac2-83fa29caee3b,2022-09-23,24.0213064481499,22.760725050912672
3523cca3-b9b9-409b-8a94-36f6620903e4,2022-09-28,19.81612234515582,22.793989194550413
666c9840-5028-4fa5-b5a2-7e7326ee9051,2022-10-27,15.506610508586522,21.144444110452227
f57f3ddd-2a7a-4adc-a9d7-9bccfde4ef23,2022-10-05,16.230826443870132,22.908519491427793
a7321f68-c5fb-4215-b037-8ab099ef09f9,2022-10-04,25.785706035740766,6.285871939227751
26179cd7-c618-4445-86e9-77ffe9239315,2022-10-02,26.591114503872287,17.05482938287954
b6b3a7b9-4367-4b83-a10d-9ed50204ea36,2022-10-26,19.352341137820055,21.091687820156416
f9f4e602-7ee3-4ebb-a2f2-4d9ec4bd8f0f,2022-11-01,18.754589568437577,19.354572922082134
3639759b-b400-46cd-a4c0-e975b27e3fbe,2022-10-21,25.829236113096442,7.786715373819478
1cfe920f-1803-4161-ad62-8e0fd25946aa,2022-11-14,15.453871306679007,9.276393923457825
db93de90-e2d2-4f6f-9dbd-5376218ef358,2022-10-08,28.563264258877762,25.946411501174737
85ffaf9e-a693-4c29-b553-7d90910109fd,2022-10-17,18.93404895626898,22.86680869993712
229b14ce-59b2-4e0b-bb14-99b3d3c152f6,2022-11-01,28.043373705157197,21.517628688238844
6507cc02-65cb-45bc-bfb7-692049c528ac,2022-10-22,18.16955410098764,12.661499696520355
57a61b76-c5c3-461c-8e37-ae6e0aa98430,2022-11-13,21.47967012669673,6.127528259031748
a9cabf31-696e-406f-ab8f-e54d8a9e7ee1,2022-10-26,21.144312291068964,13.814050771740852
daea6b41-8b5b-4ca9-b772-35bd7299b02d,2022-10-13,28.947361231988467,8.702342183660143
8fa4c568-a86e-4400-b17d-d4c3220cb89a,2022-11-14,17.27004829845789,27.656906945708585
646b35ee-f3b6-4d67-bda6-041b0f24f490,2022-09-20,17.36462703008749,7.749666256228861
a189d502-2fea-4789-a6a5-5579a7153218,2022-09-25,20.682406397897125,19.73741491669514
f181f138-7c5c-40d2-81cb-ae032d38d183,2022-11-16,27.450460515123517,17.606481424969772
48515362-b211-499b-b9fe-8d4a7d3ef131,2022-10-16,22.47767861939857,8.7221367917412
cacdd42a-7426-44a1-8f2a-10ce47a894cd,2022-09-20,24.076493341791917,30.88616834279841
0b479865-1533-4b3d-b8f5-1c959d9880b5,2022-10-03,17.172241322083753,7.4847712455922055
26ce496c-19fc-4e26-bb4e-513fdf7c1fec,2022-10-28,19.382364569691752,15.227734571176855
549e1156-3270-44d2-9234-dc50f2157cc6,2022-09-27,21.06567549161771,17.749356846943968
426ff9b2-5367-47f7-bbd5-bdcd438997e8,2022-10-29,20.653511556620963,11.494106807620508
f916d3ae-96c3-4af8-a56d-bcbb8bf96633,2022-11-10,28.61053145896497,8.988301151651187
3b0b17d9-26b5-4592-a869-03179f753299,2022-10-05,22.480473453690163,11.765404668407065
ca86b26e-efed-4621-abea-b78f3a94888f,2022-10-28,25.83225937068783,26.495813381473674
2cfe174d-fe27-463e-ba54-6775f9a2be5d,2022-10-19,16.966898875543396,9.74023601413928
814b59ac-5bb5-4368-aa0f-59fabe960dbe,2022-09-20,24.71737876253057,12.792705632769932
982ac976-e7f6-42df-94a8-f0f3cdf5cd72,2022-10-14,27.798327880359793,10.267162558285388
0a8c2f3a-9560-4dd2-9216-1eefac464366,2022-09-16,20.709319902845298,18.52983807428069
40f92e46-6b8e-41a4-8e19-67ffcb892464,2022-10-04,25.94061803225834,25.670890931097247
cc114ad5-bda7-4441-8089-6937e567dfe5,2022-10-20,21.4290845023096,14.457872274696193
1d2e5a68-0c6f-4f26-956f-69fc51bf8194,2022-09-29,17.310354589158017,11.503181650707731
c1556672-6aa3-4833-a28c-b591635c03c3,2022-10-30,17.957246267694053,25.867863100839315
3ddccd31-e421-4944-80da-51720eadbec0,2022-10-18,18.53411625390648,29.17317019586192
40d5533a-49eb-4d4f-a3a5-0a4fd7430ea4,2022-11-08,26.608451586191812,11.101044439283466
d44ec962-5c03-4883-a60c-b309979c705f,2022-10-04,27.740004363405074,5.137140544533239
92f1b55c-ee24-4a53-acde-da19884dc2bb,2022-09-15,29.673844239291952,30.976447528473468
65b94ac5-1a5f-44c4-8096-025bc8b976cc,2022-10-20,26.263798032340517,22.797988653969714
5c587888-6cc0-45c3-ab3f-6c8ec7a64f9d,2022-10-17,25.13251335815462,13.484541089385836
8c94acca-e2d0-4d11-a2e9-88adf360da36,2022-11-06,27.075062542017058,24.88472204130921
8c94201a-aafe-468a-80b6-9f9ca39001c4,2022-10-31,16.704207491914673,20.10083311610356
1cc68d94-e65d-40b1-9838-bb34d818ec56,2022-11-02,23.05066258559248,8.334171194478277
5fa4a567-2893-4d8b-81fa-448f39ad1ec0,2022-10-25,18.940650821276748,20.275298214915022
661d0f8d-34f5-41cb-b357-067630462115,2022-10-07,27.9050008037466,16.853463311681228
4160fc97-a4f1-46f4-b0e7-2a129fc83f8e,2022-10-08,16.462118260253973,9.030267497635457
bbe0aa9e-a9e4-4ada-8cf1-58bc4b37864c,2022-09-22,22.39608075271206,7.421515501355018
4aaaa114-3c73-45b5-aa91-9149e603dfbd,2022-11-01,22.288179016902042,29.474776933917337
5a7da7f3-76f7-44de-9795-09c67870b7f1,2022-11-02,20.705646213770883,28.142519978889574
0999c541-9a96-4d1c-8d5d-d8fa8311097d,2022-10-03,17.307445749125932,23.70968067690155
38c0e385-1d27-4785-bb63-e63e35fc3eb9,2022-09-26,15.591102747434698,5.501316802073709
71d151a8-3996-4f09-9733-668e0a6d4113,2022-10-20,29.985695704737942,28.786669993474884
0a2f451e-7f9d-40f8-8840-13cac7617a38,2022-10-02,18.2678762727698,13.335601523172265
dc3d427a-489f-4121-aa1e-480dd2f80f60,2022-09-11,29.267181046581413,26.96985974254187
444a2a8a-c549-4d2b-971f-c6832858b8d9,2022-09-17,18.07678872008897,6.964746018855015
a5920355-6ae4-4f54-8dd3-5f0288281209,2022-09-15,23.585899358794673,20.22972402633537
50f85838-de73-4204-884e-6d146f4eea13,2022-09-14,17.61979982468982,31.193666387080707
76ed3265-3b2b-4065-9e0b-2bcae8543ff5,2022-09-13,20.959914374403667,6.186129949270869
f9969563-8b24-4c2b-9f26-36986ce267db,2022-11-05,18.359655327761896,15.335442649888606
c587869f-940f-48a9-b186-b1ca92dcf73c,2022-10-12,27.569486998136412,18.46060582880495
405cd5b2-60a4-4b41-b405-bca840655639,2022-09-13,29.823347528526078,22.36267585350706
93e85a1f-79ab-4687-907e-1bf0e6f2dfab,2022-11-04,17.278916083864416,10.589217859541542
536f0394-a53f-45db-948f-5e861dc1ca78,2022-09-28,20.372511575492283,29.80828799347581
6ff77922-0c49-444b-be3b-019349523411,2022-11-01,15.968768297436055,5.8658088201433625
695728fa-bddc-48a1-81eb-f56b2cd83dd0,2022-10-12,25.242200938799083,28.55267991392475
257fd6ca-4c9f-48c7-9cc6-18472e322481,2022-11-05,27.033182004143754,10.94874881867565
21892f6c-1c0b-4bf8-8a82-80a8c1424440,2022-10-15,20.14548134610051,6.218031771953654
8d92922c-a3a4-4577-b212-78051e081d3d,2022-10-09,19.398809668552033,25.350509104078068
64ef637d-eb9a-4e01-827e-7c3bd5bafa77,2022-10-20,23.22590337943729,23.024978723613945
dfdfe1a5-a8cc-479b-9ac0-64f30014c328,2022-10-19,29.65565950924048,11.881000907858294
45031fc6-2b8e-4599-b912-b5f880f27204,2022-09-13,27.329570140807753,18.83252239986659
802b90e6-104b-4900-a078-63ab526d8a38,2022-09-26,25.48846785379999,26.979287735548173
